<svg xmlns="http://www.w3.org/2000/svg" class="icon icon-tabler icon-tabler-brand-css3" width="24" height="24" viewBox="0 0 24 24" stroke-width="2" stroke="#A9B388" fill="none" stroke-linecap="round" stroke-linejoin="round">
  <path stroke="none" d="M0 0h24v24H0z" fill="none"/>
  <path d="M20 4l-2 14.5l-6 2l-6 -2l-2 -14.5z" />
  <path d="M8.5 8h7l-4.5 4h4l-.5 3.5l-2.5 .75l-2.5 -.75l-.1 -.5" />
</svg>


